(footprint "PTL6019O0104B1" (version 20211014) (generator pcbnew)
  (layer "F.Cu")
  (tedit 0)
  (descr "PTL60-19O0-104B1-1")
  (tags "Variable Resistor")
  (attr through_hole)
  (fp_text reference "VR**" (at 34.65 1.25) (layer "F.SilkS")
    (effects (font (size 1.27 1.27) (thickness 0.254)))
    (tstamp b06ce446-c27e-47df-a4e3-d10b64552c26)
  )
  (fp_text value "PTL6019O0104B1" (at 34.65 1.25) (layer "F.SilkS") hide
    (effects (font (size 1.27 1.27) (thickness 0.254)))
    (tstamp e149e0b1-47fa-4b20-b36e-2d51ee1e85c3)
  )
  (fp_text user "${REFERENCE}" (at 34.65 1.25) (layer "F.Fab")
    (effects (font (size 1.27 1.27) (thickness 0.254)))
    (tstamp c9a0dd18-d945-4bfe-8921-ced29a4068d2)
  )
  (fp_line (start 72.5 -3.25) (end 72.5 -3.25) (layer "F.SilkS") (width 0.1) (tstamp 02165243-61a3-4857-84ba-71a77cb9a387))
  (fp_line (start -3.1 -0.1) (end -3.1 -0.1) (layer "F.SilkS") (width 0.2) (tstamp 0f3c9e3a-9c59-4881-b27a-d0e982b3ea8e))
  (fp_line (start 1.75 -3.25) (end 72.5 -3.25) (layer "F.SilkS") (width 0.1) (tstamp 16ded395-a862-4198-b3af-ba8c7fb298bb))
  (fp_line (start 68.5 5.75) (end 1.5 5.75) (layer "F.SilkS") (width 0.1) (tstamp 3451168c-3c76-4628-aee4-7c231bd100c3))
  (fp_line (start 72.5 -3.25) (end 72.5 -3.25) (layer "F.SilkS") (width 0.1) (tstamp 3934cdea-42c8-4ab1-b1be-2c4978ab08ae))
  (fp_line (start 68.5 5.75) (end 68.5 5.75) (layer "F.SilkS") (width 0.1) (tstamp 563c12e4-8f8c-446c-a11f-94f5aa93b994))
  (fp_line (start -2.5 -3.25) (end -1.5 -3.25) (layer "F.SilkS") (width 0.1) (tstamp 5994a946-119f-4db4-aafe-00ae73b5b800))
  (fp_line (start -2.5 -3.25) (end -2.5 5.75) (layer "F.SilkS") (width 0.1) (tstamp 646d9e91-59b4-4865-a2fc-29780ed32563))
  (fp_line (start -1.5 5.75) (end -2.5 5.75) (layer "F.SilkS") (width 0.1) (tstamp 681bd495-c396-44ce-92bd-4b397cd48c04))
  (fp_line (start 72.5 5.75) (end 72.5 5.75) (layer "F.SilkS") (width 0.1) (tstamp 6ff874d0-4ac5-414c-83a7-573eda4c7703))
  (fp_line (start 72.5 -3.25) (end 72.5 5.75) (layer "F.SilkS") (width 0.1) (tstamp 825c70b0-4860-42b7-97dc-86bfa46e06fd))
  (fp_line (start 72.5 -3.25) (end 1.75 -3.25) (layer "F.SilkS") (width 0.1) (tstamp 851ab59d-1fd7-45c7-a775-29797327cafc))
  (fp_line (start -2.5 5.75) (end -2.5 -3.25) (layer "F.SilkS") (width 0.1) (tstamp 87c78429-be2b-40ed-8d3b-56cb9666a56f))
  (fp_line (start 72.5 5.75) (end 71.5 5.75) (layer "F.SilkS") (width 0.1) (tstamp 9538e4ed-27e6-4c37-b989-9859dc0d49e8))
  (fp_line (start 1.75 -3.25) (end 1.75 -3.25) (layer "F.SilkS") (width 0.1) (tstamp 975b065a-4fee-4d11-9f2f-b1d40a3629cb))
  (fp_line (start -2.5 5.75) (end -2.5 5.75) (layer "F.SilkS") (width 0.1) (tstamp 99030c03-63b4-49ba-b5ab-4d56974f7963))
  (fp_line (start 72.5 5.75) (end 72.5 -3.25) (layer "F.SilkS") (width 0.1) (tstamp 9ff4672a-e1a4-4a1e-887d-1b9a3429d278))
  (fp_line (start -1.5 5.75) (end -1.5 5.75) (layer "F.SilkS") (width 0.1) (tstamp a1c7b1f5-f895-4192-9484-2357882c73e0))
  (fp_line (start 1.5 5.75) (end 68.5 5.75) (layer "F.SilkS") (width 0.1) (tstamp a3668681-09b1-48f0-a7b1-f6b24183a469))
  (fp_line (start -1.5 -3.25) (end -1.5 -3.25) (layer "F.SilkS") (width 0.1) (tstamp b680b4a7-6cb0-40b5-a7ec-a02910a0daa4))
  (fp_line (start -3.2 -0.1) (end -3.2 -0.1) (layer "F.SilkS") (width 0.2) (tstamp bbb15673-6d42-42b8-9d51-7515b3ad9ee9))
  (fp_line (start -2.5 5.75) (end -2.5 5.75) (layer "F.SilkS") (width 0.1) (tstamp be0953c0-632d-4dd2-85e9-4d41239f22d2))
  (fp_line (start -2.5 5.75) (end -1.5 5.75) (layer "F.SilkS") (width 0.1) (tstamp c5a1761e-3391-4e74-90c9-947fd66e1fc6))
  (fp_line (start 1.5 5.75) (end 1.5 5.75) (layer "F.SilkS") (width 0.1) (tstamp ca213826-0282-4b3a-840f-ec416dc34acf))
  (fp_line (start 71.5 5.75) (end 71.5 5.75) (layer "F.SilkS") (width 0.1) (tstamp e1105432-6a2f-45d9-8a08-47401d087cf4))
  (fp_line (start 71.5 5.75) (end 72.5 5.75) (layer "F.SilkS") (width 0.1) (tstamp e63e39d7-6ac0-4ffd-8aa3-1841a4541b55))
  (fp_line (start -2.5 -3.25) (end -2.5 -3.25) (layer "F.SilkS") (width 0.1) (tstamp e6521bef-4109-48f7-8b88-4121b0468927))
  (fp_line (start -3.2 -0.1) (end -3.2 -0.1) (layer "F.SilkS") (width 0.2) (tstamp e83e0227-ac0f-4180-82bd-68d3a7b56476))
  (fp_line (start -1.5 -3.25) (end -2.5 -3.25) (layer "F.SilkS") (width 0.1) (tstamp eaef1172-3351-417c-bfc4-74a598f141cb))
  (fp_line (start 72.5 5.75) (end 72.5 5.75) (layer "F.SilkS") (width 0.1) (tstamp edc9ab4f-487a-48dc-95f2-4d87f0e9cf9e))
  (fp_line (start -2.5 -3.25) (end -2.5 -3.25) (layer "F.SilkS") (width 0.1) (tstamp f6ee98b5-4773-4eeb-a825-33c1705abace))
  (fp_arc (start -3.1 -0.1) (mid -3.15 -0.05) (end -3.2 -0.1) (layer "F.SilkS") (width 0.2) (tstamp 46cfd089-6873-4d8b-89af-02ff30e49472))
  (fp_arc (start -3.1 -0.1) (mid -3.15 -0.05) (end -3.2 -0.1) (layer "F.SilkS") (width 0.2) (tstamp 9d984d1b-8097-407f-92f3-3ef68867dcfa))
  (fp_arc (start -3.2 -0.1) (mid -3.15 -0.15) (end -3.1 -0.1) (layer "F.SilkS") (width 0.2) (tstamp bb4f0314-c44c-4dda-b85c-537120eaae9a))
  (fp_line (start 73.5 -4.475) (end 73.5 6.975) (layer "F.CrtYd") (width 0.1) (tstamp 23e66461-bcf2-4335-93c2-5c91dfd00187))
  (fp_line (start -4.2 6.975) (end -4.2 -4.475) (layer "F.CrtYd") (width 0.1) (tstamp 3559e287-424e-4397-b080-77c7ba6f395b))
  (fp_line (start -4.2 -4.475) (end 73.5 -4.475) (layer "F.CrtYd") (width 0.1) (tstamp d0dfd7c1-401d-4f64-8463-f4c0813ac28f))
  (fp_line (start 73.5 6.975) (end -4.2 6.975) (layer "F.CrtYd") (width 0.1) (tstamp dd2f6b13-9e35-4a67-90ac-cf0d1ea34e5a))
  (fp_line (start -2.5 -3.25) (end -2.5 5.75) (layer "F.Fab") (width 0.2) (tstamp 08e2d62f-f99a-4268-8b33-617dfcc63e75))
  (fp_line (start -2.5 5.75) (end 72.5 5.75) (layer "F.Fab") (width 0.2) (tstamp 81c041f3-483e-477d-9475-d108280de2a9))
  (fp_line (start 72.5 -3.25) (end -2.5 -3.25) (layer "F.Fab") (width 0.2) (tstamp 92e8f8c3-0985-4c0d-8e38-92cbbf365409))
  (fp_line (start 72.5 5.75) (end 72.5 -3.25) (layer "F.Fab") (width 0.2) (tstamp e68c5170-03c3-4a20-abd0-ad610c43d035))
  (pad "1" thru_hole circle (at 0 0) (size 1.95 1.95) (drill 1.3) (layers *.Cu *.Mask) (tstamp 68b52f01-fa04-4908-bf88-60c62ace1cfa))
  (pad "2" thru_hole circle (at 0 -2.5) (size 1.95 1.95) (drill 1.3) (layers *.Cu *.Mask) (tstamp b8c83ad1-b3c9-495c-bdc6-62dead00f5ad))
  (pad "3" thru_hole circle (at 70 0) (size 1.95 1.95) (drill 1.3) (layers *.Cu *.Mask) (tstamp 7e969d15-6cc0-4258-8b27-586608a21adb))
  (pad "B1" thru_hole circle (at 70 5) (size 1.95 1.95) (drill 1.3) (layers *.Cu *.Mask) (tstamp f1dd8642-b405-490b-a449-d1cc5797fda8))
  (pad "E1" thru_hole circle (at 0 5) (size 1.95 1.95) (drill 1.3) (layers *.Cu *.Mask) (tstamp f022716e-b121-4cbf-a833-20e924070c22))
  (pad "L1" thru_hole circle (at 0 2.5) (size 1.95 1.95) (drill 1.3) (layers *.Cu *.Mask) (tstamp cb868d2e-5efb-4bfb-8796-88435b326918))
  (model "PTL60-19O0-104B1.stp"
    (offset (xyz 0 0 0))
    (scale (xyz 1 1 1))
    (rotate (xyz 0 0 0))
  )
)
