(footprint "SW_PG1350_reversible" (version 20211014) (generator pcbnew)
  (layer "F.Cu")
  (tedit 5DD501D8)
  (descr "Kailh \"Choc\" PG1350 keyswitch, able to be mounted on front or back of PCB")
  (tags "kailh,choc")
  (attr through_hole)
  (fp_text reference "REF**" (at 0 -8.255) (layer "F.SilkS")
    (effects (font (size 1 1) (thickness 0.15)))
    (tstamp 5ca4be1c-537e-4a4a-b344-d0c8ffde8546)
  )
  (fp_text value "SW_PG1350_reversible" (at 0 8.255) (layer "F.Fab")
    (effects (font (size 1 1) (thickness 0.15)))
    (tstamp 275aa44a-b61f-489f-9e2a-819a0fe0d1eb)
  )
  (fp_text user "${REFERENCE}" (at 0 -8.255) (layer "B.SilkS")
    (effects (font (size 1 1) (thickness 0.15)) (justify mirror))
    (tstamp 644ae9fc-3c8e-4089-866e-a12bf371c3e9)
  )
  (fp_text user "${VALUE}" (at 0 8.255) (layer "B.Fab")
    (effects (font (size 1 1) (thickness 0.15)) (justify mirror))
    (tstamp 41acfe41-fac7-432a-a7a3-946566e2d504)
  )
  (fp_text user "${REFERENCE}" (at 0 0) (layer "B.Fab")
    (effects (font (size 1 1) (thickness 0.15)) (justify mirror))
    (tstamp 7f2301df-e4bc-479e-a681-cc59c9a2dbbb)
  )
  (fp_text user "${REFERENCE}" (at 0 0) (layer "F.Fab")
    (effects (font (size 1 1) (thickness 0.15)))
    (tstamp 65134029-dbd2-409a-85a8-13c2a33ff019)
  )
  (fp_line (start 7 6) (end 7 7) (layer "B.SilkS") (width 0.15) (tstamp 097edb1b-8998-4e70-b670-bba125982348))
  (fp_line (start -7 -6) (end -7 -7) (layer "B.SilkS") (width 0.15) (tstamp 14c51520-6d91-4098-a59a-5121f2a898f7))
  (fp_line (start -7 -7) (end -6 -7) (layer "B.SilkS") (width 0.15) (tstamp 2d67a417-188f-4014-9282-000265d80009))
  (fp_line (start -7 7) (end -7 6) (layer "B.SilkS") (width 0.15) (tstamp 477311b9-8f81-40c8-9c55-fd87e287247a))
  (fp_line (start 7 -7) (end 7 -6) (layer "B.SilkS") (width 0.15) (tstamp 6284122b-79c3-4e04-925e-3d32cc3ec077))
  (fp_line (start 6 -7) (end 7 -7) (layer "B.SilkS") (width 0.15) (tstamp 67763d19-f622-4e1e-81e5-5b24da7c3f99))
  (fp_line (start -6 7) (end -7 7) (layer "B.SilkS") (width 0.15) (tstamp 84e5506c-143e-495f-9aa4-d3a71622f213))
  (fp_line (start 7 7) (end 6 7) (layer "B.SilkS") (width 0.15) (tstamp 994b6220-4755-4d84-91b3-6122ac1c2c5e))
  (fp_line (start -7 -7) (end -6 -7) (layer "F.SilkS") (width 0.15) (tstamp 0351df45-d042-41d4-ba35-88092c7be2fc))
  (fp_line (start 7 7) (end 6 7) (layer "F.SilkS") (width 0.15) (tstamp 37e8181c-a81e-498b-b2e2-0aef0c391059))
  (fp_line (start -6 7) (end -7 7) (layer "F.SilkS") (width 0.15) (tstamp 676efd2f-1c48-4786-9e4b-2444f1e8f6ff))
  (fp_line (start 6 -7) (end 7 -7) (layer "F.SilkS") (width 0.15) (tstamp 6c67e4f6-9d04-4539-b356-b76e915ce848))
  (fp_line (start -7 7) (end -7 6) (layer "F.SilkS") (width 0.15) (tstamp 8d9a3ecc-539f-41da-8099-d37cea9c28e7))
  (fp_line (start 7 -7) (end 7 -6) (layer "F.SilkS") (width 0.15) (tstamp b447dbb1-d38e-4a15-93cb-12c25382ea53))
  (fp_line (start 7 6) (end 7 7) (layer "F.SilkS") (width 0.15) (tstamp cfa5c16e-7859-460d-a0b8-cea7d7ea629c))
  (fp_line (start -7 -6) (end -7 -7) (layer "F.SilkS") (width 0.15) (tstamp e472dac4-5b65-4920-b8b2-6065d140a69d))
  (fp_line (start 6.9 -6.9) (end 6.9 6.9) (layer "Eco2.User") (width 0.15) (tstamp 099096e4-8c2a-4d84-a16f-06b4b6330e7a))
  (fp_line (start -2.6 -3.1) (end -2.6 -6.3) (layer "Eco2.User") (width 0.15) (tstamp 0e1ed1c5-7428-4dc7-b76e-49b2d5f8177d))
  (fp_line (start -2.6 -3.1) (end 2.6 -3.1) (layer "Eco2.User") (width 0.15) (tstamp 240e5dac-6242-47a5-bbef-f76d11c715c0))
  (fp_line (start -6.9 6.9) (end -6.9 -6.9) (layer "Eco2.User") (width 0.15) (tstamp 87d7448e-e139-4209-ae0b-372f805267da))
  (fp_line (start 6.9 -6.9) (end -6.9 -6.9) (layer "Eco2.User") (width 0.15) (tstamp a13ab237-8f8d-4e16-8c47-4440653b8534))
  (fp_line (start 2.6 -3.1) (end 2.6 -6.3) (layer "Eco2.User") (width 0.15) (tstamp aa2ea573-3f20-43c1-aa99-1f9c6031a9aa))
  (fp_line (start -6.9 6.9) (end 6.9 6.9) (layer "Eco2.User") (width 0.15) (tstamp ca5a4651-0d1d-441b-b17d-01518ef3b656))
  (fp_line (start 2.6 -6.3) (end -2.6 -6.3) (layer "Eco2.User") (width 0.15) (tstamp f40d350f-0d3e-4f8a-b004-d950f2f8f1ba))
  (fp_line (start -7.5 7.5) (end -7.5 -7.5) (layer "B.Fab") (width 0.15) (tstamp 1e518c2a-4cb7-4599-a1fa-5b9f847da7d3))
  (fp_line (start -7.5 -7.5) (end 7.5 -7.5) (layer "B.Fab") (width 0.15) (tstamp 34a74736-156e-4bf3-9200-cd137cfa59da))
  (fp_line (start 7.5 -7.5) (end 7.5 7.5) (layer "B.Fab") (width 0.15) (tstamp d0d2eee9-31f6-44fa-8149-ebb4dc2dc0dc))
  (fp_line (start 7.5 7.5) (end -7.5 7.5) (layer "B.Fab") (width 0.15) (tstamp ee41cb8e-512d-41d2-81e1-3c50fff32aeb))
  (fp_line (start -7.5 -7.5) (end 7.5 -7.5) (layer "F.Fab") (width 0.15) (tstamp 3a52f112-cb97-43db-aaeb-20afe27664d7))
  (fp_line (start 7.5 -7.5) (end 7.5 7.5) (layer "F.Fab") (width 0.15) (tstamp 8087f566-a94d-4bbc-985b-e49ee7762296))
  (fp_line (start -7.5 7.5) (end -7.5 -7.5) (layer "F.Fab") (width 0.15) (tstamp 98c78427-acd5-4f90-9ad6-9f61c4809aec))
  (fp_line (start 7.5 7.5) (end -7.5 7.5) (layer "F.Fab") (width 0.15) (tstamp f4eb0267-179f-46c9-b516-9bfb06bac1ba))
  (pad "" np_thru_hole circle (at 0 0) (size 3.429 3.429) (drill 3.429) (layers *.Cu *.Mask) (tstamp 101ef598-601d-400e-9ef6-d655fbb1dbfa))
  (pad "" np_thru_hole circle (at -5.5 0) (size 1.7018 1.7018) (drill 1.7018) (layers *.Cu *.Mask) (tstamp 35a9f71f-ba35-47f6-814e-4106ac36c51e))
  (pad "" np_thru_hole circle (at 5.5 0) (size 1.7018 1.7018) (drill 1.7018) (layers *.Cu *.Mask) (tstamp 5b34a16c-5a14-4291-8242-ea6d6ac54372))
  (pad "" np_thru_hole circle (at -5.22 -4.2) (size 0.9906 0.9906) (drill 0.9906) (layers *.Cu *.Mask) (tstamp a8447faf-e0a0-4c4a-ae53-4d4b28669151))
  (pad "" np_thru_hole circle (at 5.22 -4.2) (size 0.9906 0.9906) (drill 0.9906) (layers *.Cu *.Mask) (tstamp c701ee8e-1214-4781-a973-17bef7b6e3eb))
  (pad "1" thru_hole circle (at 0 5.9) (size 2.032 2.032) (drill 1.27) (layers *.Cu *.Mask) (tstamp 6781326c-6e0d-4753-8f28-0f5c687e01f9))
  (pad "2" thru_hole circle (at 5 3.8) (size 2.032 2.032) (drill 1.27) (layers *.Cu *.Mask) (tstamp 7f52d787-caa3-4a92-b1b2-19d554dc29a4))
  (pad "2" thru_hole circle (at -5 3.8) (size 2.032 2.032) (drill 1.27) (layers *.Cu *.Mask) (tstamp c8029a4c-945d-42ca-871a-dd73ff50a1a3))
)
